Coerce Actigraphy to Summarized Experiments • SummarizedActigraphy
…
#>  $ Subject Name      :"GT3XPlus"
#>  $ Serial Prefix     :"NEO"
#>  $ Last Sample Time  : 'POSIXct' num(0) 
#>  - attr(*, "tzone")= chr "GMT"
#>  $ Acceleration Scale:341
#> Parsing GT3X data via CPP.. expected sample size: 2700000
#> Using NHANES-GT3X format - older format
#> Sample size: 2700000
#> Scaling...
#> Done (in 0.588511943817139 seconds)
#> Joining, by = "HEADER_TIME_STAMP"
#> Getting the First Day
#> Summarizing Data
result
#> # A tsibble: 1,440 x 11 [1m]
#>    time   AI_mean AI_median SD_mean SD_median MAD_mean MAD_median MEDAD_mean
#>    <time>   <dbl>     <dbl>   <dbl>     <dbl>    <dbl>      <dbl>      <dbl>
#>  1 00'00"  0.266      0.177 0.00646   0.00507  0.00373    0.00317    0.00221
#>  2 01'00"  0.323      0.230 0.0150    0.00644  0.00578    0.00448    0.00271
#>  3 02'00"  0.144      0.142 0.00402   0.00447  0.00252    0.00276    0.00132
#>  4 03'00"  0.947      0.643 0.0310    0.0145   0.0108     0.00640    0.00516
#>  5 04'00"  1.11       1.48  0.0324    0.0224   0.0130     0.0120     0.00428
#>  6 05'00"  0.536      0.214 0.00836   0.00615  0.00498    0.00294    0.00274
#>  7 06'00"  0.0921     0.122 0.00511   0.00641  0.00441    0.00460    0.00372
#>  8 07'00"  0.179      0.130 0.00979   0.00834  0.00587    0.00566    0.00380
#>  9 08'00"  0.572      0.139 0.0289    0.00503  0.00769    0.00301    0.00240
#> 10 09'00"  0.387      0.427 0.0167    0.0208   0.00580    0.00593    0.00254
#> # … with 1,430 more rows, and 3 more variables: MEDAD_median <dbl>,
#> #   mean_r_mean <dbl>, mean_r_median <dbl>
…
