…
``` r
library(SummarizedActigraphy)
url = paste0("https://github.com/THLfi/read.gt3x/files/",
             "3522749/GT3X%2B.01.day.gt3x.zip")
destfile = tempfile(fileext = ".zip")
dl = utils::download.file(url, destfile = destfile)
gt3x_file = utils::unzip(destfile, exdir = tempdir())
gt3x_file = gt3x_file[!grepl("__MACOSX", gt3x_file)]
path = gt3x_file
result = summarize_actigraphy(path)
#> Running Daily Actigraphy
#> Getting the First Day
#> Summarizing Data
result
#> # A tsibble: 1,440 x 13 [1m]
#>    time   AI_mean AI_median SD_mean SD_median MAD_mean MAD_median MEDAD_mean
#>    <time>   <dbl>     <dbl>   <dbl>     <dbl>    <dbl>      <dbl>      <dbl>
#>  1 00'00"  0.168     0.168  0.00613   0.00613  0.00394    0.00394    0.00291
#>  2 01'00"  0.0501    0.0501 0.00514   0.00514  0.00393    0.00393    0.00276
#>  3 02'00"  0         0      0         0        0          0          0      
#>  4 03'00"  0         0      0         0        0          0          0      
#>  5 04'00"  0         0      0         0        0          0          0      
#>  6 05'00"  0         0      0         0        0          0          0      
#>  7 06'00"  0.0802    0.0802 0.00375   0.00375  0.00308    0.00308    0.00216
#>  8 07'00"  0.0271    0.0271 0.00298   0.00298  0.00206    0.00206    0.00124
#>  9 08'00"  0.0865    0.0865 0.00411   0.00411  0.00355    0.00355    0.00452
#> 10 09'00"  0.0543    0.0543 0.00230   0.00230  0.00197    0.00197    0.00142
#> # ℹ 1,430 more rows
#> # ℹ 5 more variables: MEDAD_median <dbl>, ENMO_t_mean <dbl>,
#> #   ENMO_t_median <dbl>, mean_r_mean <dbl>, mean_r_median <dbl>
```
…
#>  $ Acceleration Scale:341
#>  $ Acceleration Min  :"-6.0"
#>  $ Acceleration Max  :"6.0"
#> Parsing GT3X data via CPP.. expected sample size: 2700000
#> Using NHANES-GT3X format - older format
#> Sample size: 2700000
#> Scaling...
#> Done (in 0.675724983215332 seconds)
df = data$data
df = tibble::as_tibble(df)
all_zero = df$X == 0 & df$Y == 0 & df$Z == 0
df[all_zero, ] %>% 
  dplyr::mutate(time = lubridate::floor_date(time, "1 sec")) %>% 
  dplyr::distinct()
#> # A tibble: 3,341 × 4
#>    time                    X     Y     Z
#>    <dttm>              <dbl> <dbl> <dbl>
#>  1 2012-06-27 10:54:00     0     0     0
#>  2 2012-06-27 10:54:01     0     0     0
#>  3 2012-06-27 10:54:02     0     0     0
#>  4 2012-06-27 10:54:03     0     0     0
#>  5 2012-06-27 10:54:04     0     0     0
#>  6 2012-06-27 11:27:40     0     0     0
#>  7 2012-06-27 11:27:41     0     0     0
#>  8 2012-06-27 11:27:42     0     0     0
#>  9 2012-06-27 11:27:43     0     0     0
#> 10 2012-06-27 11:27:44     0     0     0
#> # ℹ 3,331 more rows
df = SummarizedActigraphy::fix_zeros(df)
df[all_zero, ] %>% 
  dplyr::mutate(time = lubridate::floor_date(time, "1 sec")) %>% 
  dplyr::distinct()
#> # A tibble: 3,341 × 4
#>    time                     X      Y     Z
#>    <dttm>               <dbl>  <dbl> <dbl>
#>  1 2012-06-27 10:54:00  0      0      0   
#>  2 2012-06-27 10:54:01  0      0      0   
#>  3 2012-06-27 10:54:02  0      0      0   
#>  4 2012-06-27 10:54:03  0      0      0   
#>  5 2012-06-27 10:54:04  0      0      0   
#>  6 2012-06-27 11:27:40 -0.123 -0.029 -1.04
#>  7 2012-06-27 11:27:41 -0.123 -0.029 -1.04
#>  8 2012-06-27 11:27:42 -0.123 -0.029 -1.04
#>  9 2012-06-27 11:27:43 -0.123 -0.029 -1.04
#> 10 2012-06-27 11:27:44 -0.123 -0.029 -1.04
#> # ℹ 3,331 more rows
```
…
