Summarizing Actigraphy Data • SummarizedActigraphy
…
The read_actigraphy function uses the read.gt3x::read.gt3x for gt3x files, and uses functions from the GGIR package [@GGIR].

The output has a data matrix in the data, which has X, Y, and Z columns, with an additional time column, which is a date/time column. Additionally, the header object has additional metadata about the object:

x$header
# A tibble: 23 x 2
   Field             Value              
   <chr>             <chr>              
 1 Serial Number     NEO1DXXXXXXXX      
 2 Device Type       GT3XPlus           
 3 Firmware          2.5.0              
 4 Battery Voltage   4.22               
 5 Sample Rate       30                 
 6 Start Date        2012-06-27 10:54:00
 7 Stop Date         2012-06-28 11:54:00
 8 Download Date     2012-06-28 16:25:52
 9 Board Revision    4                  
10 Unexpected Resets 0                  
# … with 13 more rows
…
